…
```
# Normalize Data
gse756d_seurat <- NormalizeData(gse756d_seurat, normalization.method = "LogNormalize", scale.factor = 10000)

# Variable Features
gse756d_seurat <- FindVariableFeatures(gse756d_seurat, selection.method = "vst", nfeatures = 500)
## Identify the 10 most highly variable genes
top10 <- head(VariableFeatures(gse756d_seurat), 10)

top10 

> top10
# A tibble: 90 × 7
      p_val avg_log2FC pct.1 pct.2 p_val_adj cluster gene
      <dbl>      <dbl> <dbl> <dbl>     <dbl> <fct>   <chr>
 1 8.70e-44       6.23 0.659 0.083  5.04e-39 0       TSPAN8
 2 2.51e-39       5.71 0.637 0.085  1.45e-34 0       FABP7
 3 1.50e-34       4.69 0.615 0.098  8.71e-30 0       HOXA10
 4 9.17e-34       6.10 0.352 0.009  5.31e-29 0       CHST9
 5 7.27e-33       5.22 0.593 0.098  4.21e-28 0       CLDN1
 6 1.09e-32       4.20 0.681 0.138  6.29e-28 0       BANK1       
 7 3.84e-32       4.79 0.462 0.041  2.23e-27 0       MYBPC1
 8 6.57e-32       2.39 0.396 0.022  3.81e-27 0       PLA2G2A
 9 1.60e-31       4.89 0.462 0.044  9.27e-27 0       RP11-48O20.4
10 9.76e-30       5.26 0.484 0.061  5.65e-25 0       ATP13A4
# ℹ 80 more rows
# ℹ Use `print(n = ...)` to see more rows
…
# Load in human gene set
hs <- org.Hs.eg.db
# Get a list of top genes
top_genes_ls <- top_genes$result.anno



## Heres our 85 significant genes
########
> tibble(top_genes_ls)
# A tibble: 85 × 1
   top_genes_ls
   <chr>
 1 ENSG00000038532
 2 ENSG00000048471
 3 ENSG00000081019
 4 ENSG00000083844
 5 ENSG00000095794
 6 ENSG00000101265
 7 ENSG00000105369
 8 ENSG00000111886
 9 ENSG00000112137
10 ENSG00000112149
# ℹ 75 more rows
# ℹ Use `print(n = ...)` to see more rows
########


# Annotate genes from ENSEMBL into entrezID and gene symbol
ensembl_entrez_mapping <- AnnotationDbi::select(hs,
                                                keys = top_genes_ls,
                                                keytype = "ENSEMBL",
                                                columns = c("ENTREZID", "SYMBOL"))


Here, gene 29 had two outputs, resulting in an extra row entry, as
there were two genes with two ENTREZID that mapped onto it. About 27%~ failed to map, which might have caused the 2 missing pathways.
########
> tibble(ensembl_entrez_mapping) 
# A tibble: 86 × 3
   ENSEMBL         ENTREZID SYMBOL
   <chr>           <chr>    <chr>
 1 ENSG00000038532 23274    CLEC16A
 2 ENSG00000048471 92017    SNX29
 3 ENSG00000081019 54665    RSBN1
 4 ENSG00000083844 9422     ZNF264 
 5 ENSG00000095794 1390     CREM
 6 ENSG00000101265 9770     RASSF2
 7 ENSG00000105369 973      CD79A
 8 ENSG00000111886 2570     GABRR2
 9 ENSG00000112137 221692   PHACTR1
10 ENSG00000112149 9308     CD83
# ℹ 76 more rows
# ℹ Use `print(n = ...)` to see more rows
…
